{
  "db": {
    "name": "db",
    "connector": "memory"
  },
  "mysql-conection": {
    "host": "192.168.99.100",
    "port": 3304,
    "database": "Aldibs",
    "password": "root",
    "name": "mysql-conection",
    "connector": "mysql",
    "user": "root"
  }
}
